…
```
## Warning: There were 2 warnings in `mutate()`.
## The first warning was:
## ℹ In argument: `damage_property = case_when(...)`.
## Caused by warning:
## ! NAs introduced by coercion
## ℹ Run `dplyr::last_dplyr_warnings()` to see the 1 remaining warning.
```

```
## # A tibble: 138 × 13
## # Groups:   state [15]
##    state    ymd       year month   day counties_affected injuries_direct
##    <chr>    <chr>    <dbl> <dbl> <dbl>             <int>           <dbl>
##  1 Alabama  07092005  2005     7     9                15               0
##  2 Alabama  07102005  2005     7    10                 3               0
##  3 Alabama  07181997  1997     7    18                 4               0
##  4 Alabama  07211997  1997     7    21                 1               0
##  5 Alabama  08272005  2005     8    27                 6               0
##  6 Alabama  09011998  1998     9     1                 4               0
##  7 Alabama  09132004  2004     9    13                14               0
##  8 Alabama  09251998  1998     9    25                13               0
##  9 Alabama  10022002  2002    10     2                 4               0
## 10 Arkansas 08292005  2005     8    29                 2               0
## # ℹ 128 more rows
## # ℹ 6 more variables: injuries_indirect <dbl>, deaths_direct <dbl>,
## #   deaths_indirect <dbl>, magnitude <dbl>, damage_property <dbl>,
## #   damage_crops <dbl>
```
…
